…
```r
# convert to sf points
pnts <- st_as_sf(df, coords = c('lng', 'lat'), crs = st_crs('WGS84'))
# intersect with countries
pnts_in_countries <- st_intersection(pnts, world)

# breakdown of records per country
pnts_in_countries %>%
  as_tibble() %>%
  group_by(sovereignt) %>%
  summarize(n_places=n()) %>%
  arrange(desc(n))

# A tibble: 25 x 2
   iso_a3 n_places
   <chr>     <int>
 1 GBR       11438
 2 USA        1336
 3 DEU         819
 4 NZL         376
 5 HKG         270
 6 FRA         215
 7 ISR         101
 8 JPN          77
 9 GRC          62
10 RUS          61
# ... with 15 more rows
```
…
# get immigration / emmigration events
pnts_in_countries %>%
  as_tibble() %>%
  arrange(time) %>%
  transmute(
    date = as_date(time),
    country = iso_a3) %>%
  transmute(
    date_from = lag(date),
    date_to = date,
    country_from = lag(country),
    country_to = country) %>%
  filter(country_from != country_to)

# A tibble: 141 x 4
   date_from  date_to    country_from country_to
   <date>     <date>     <chr>        <chr>     
 1 2014-05-10 2014-05-12 GBR          USA       
 2 2014-05-16 2014-05-18 USA          GBR       
 3 2014-05-29 2014-06-03 GBR          DEU       
 4 2014-06-03 2014-06-04 DEU          GBR       
 5 2014-07-09 2014-07-14 GBR          DEU       
 6 2014-07-14 2014-07-14 DEU          GBR       
 7 2014-12-19 2014-12-20 GBR          USA       
 8 2015-01-08 2015-01-09 USA          DEU       
 9 2015-01-10 2015-01-11 DEU          GBR       
10 2015-03-30 2015-04-02 GBR          DEU       
# ... with 131 more rows
```
…
